…
## NSDUH

``` r
nsduh_url = "http://samhda.s3-us-gov-west-1.amazonaws.com/s3fs-public/field-uploads/2k15StateFiles/NSDUHsaeShortTermCHG2015.htm"

table_marj = 
  read_html(nsduh_url) |> 
  html_table() |> 
  first() |>
  slice(-1) # delete first row

table_marj
```

    ## # A tibble: 56 × 16
    ##    State     `12+(2013-2014)` `12+(2014-2015)` `12+(P Value)` `12-17(2013-2014)`
    ##    <chr>     <chr>            <chr>            <chr>          <chr>             
    ##  1 Total U.… 12.90a           13.36            0.002          13.28b            
    ##  2 Northeast 13.88a           14.66            0.005          13.98             
    ##  3 Midwest   12.40b           12.76            0.082          12.45             
    ##  4 South     11.24a           11.64            0.029          12.02             
    ##  5 West      15.27            15.62            0.262          15.53a            
    ##  6 Alabama   9.98             9.60             0.426          9.90              
    ##  7 Alaska    19.60a           21.92            0.010          17.30             
    ##  8 Arizona   13.69            13.12            0.364          15.12             
    ##  9 Arkansas  11.37            11.59            0.678          12.79             
    ## 10 Californ… 14.49            15.25            0.103          15.03             
    ## # ℹ 46 more rows
    ## # ℹ 11 more variables: `12-17(2014-2015)` <chr>, `12-17(P Value)` <chr>,
    ## #   `18-25(2013-2014)` <chr>, `18-25(2014-2015)` <chr>, `18-25(P Value)` <chr>,
    ## #   `26+(2013-2014)` <chr>, `26+(2014-2015)` <chr>, `26+(P Value)` <chr>,
    ## #   `18+(2013-2014)` <chr>, `18+(2014-2015)` <chr>, `18+(P Value)` <chr>
…
data_marj
```

    ## # A tibble: 510 × 4
    ##    State   age   year      percent
    ##    <chr>   <chr> <chr>       <dbl>
    ##  1 Alabama 12+   2013-2014    9.98
    ##  2 Alabama 12+   2014-2015    9.6 
    ##  3 Alabama 12-17 2013-2014    9.9 
    ##  4 Alabama 12-17 2014-2015    9.71
    ##  5 Alabama 18-25 2013-2014   27.0 
    ##  6 Alabama 18-25 2014-2015   26.1 
    ##  7 Alabama 26+   2013-2014    7.1 
    ##  8 Alabama 26+   2014-2015    6.81
    ##  9 Alabama 18+   2013-2014    9.99
    ## 10 Alabama 18+   2014-2015    9.59
    ## # ℹ 500 more rows
…
    ## date created (size, mb): 2023-09-28 10:18:59.097334 (3.83)

    ## file min/max dates: 1949-10-01 / 2023-09-30

    ## using cached file: /Users/apple/Library/Caches/org.R-project.R/R/rnoaa/noaa_ghcnd/USS0023B17S.dly

    ## date created (size, mb): 2023-09-28 10:19:01.293988 (0.994)

    ## file min/max dates: 1999-09-01 / 2023-09-30

``` r
weather_df
```

    ## # A tibble: 3,009 × 6
    ##    name           id          date        prcp  tmax  tmin
    ##    <chr>          <chr>       <date>     <dbl> <dbl> <dbl>
    ##  1 CentralPark_NY USW00094728 2021-01-01   157   4.4   0.6
    ##  2 CentralPark_NY USW00094728 2021-01-02    13  10.6   2.2
    ##  3 CentralPark_NY USW00094728 2021-01-03    56   3.3   1.1
    ##  4 CentralPark_NY USW00094728 2021-01-04     5   6.1   1.7
    ##  5 CentralPark_NY USW00094728 2021-01-05     0   5.6   2.2
    ##  6 CentralPark_NY USW00094728 2021-01-06     0   5     1.1
    ##  7 CentralPark_NY USW00094728 2021-01-07     0   5    -1  
    ##  8 CentralPark_NY USW00094728 2021-01-08     0   2.8  -2.7
    ##  9 CentralPark_NY USW00094728 2021-01-09     0   2.8  -4.3
    ## 10 CentralPark_NY USW00094728 2021-01-10     0   5    -1.6
    ## # ℹ 2,999 more rows
…
